(('маскарпоне', 'гр.'), 250.0)
(('сливочный сыр', 'гр.'), 200.0)
(('сахар', 'гр.'), 240.0)
(('тыквенное пюре', 'гр.'), 300.0)
(('яйца', 'шт.'), 5.5)
(('сливки', 'гр.'), 270.0)
(('сливочное масло', 'гр.'), 65.0)
(('коричневый сахар', 'гр.'), 35.0)
(('мука', 'гр.'), 140.0)
(('карамель', 'гр.'), 45.0)
(('разрыхлитель', 'гр.'), 2.0)
(('яблоки', 'шт.'), 1.0)
(('соль', 'щепотка'), 1.0)
(('какао', 'гр.'), 15.0)
(('соль', 'ч. л.'), 0.25)
(('сода', 'ч. л.'), 0.33)
(('молоко', 'гр.'), 75.0)
(('растительное масло', 'гр.'), 15.0)
(('ванильный экстракт', 'ч. л.'), 0.5)
(('уксус', 'ч. л.'), 0.5)
(('Молд алфавит', 'шт.'), 1.0)
(('Шоколад белый', 'гр.'), 150.0)
(('Оранжевый жирорастворимый краситель', 'шт.'), 1.0)
(('сливочный творожный сыр', 'гр.'), 550.0)
(('черный шоколад', 'гр.'), 60.0)
(('молочный шоколад', 'гр.'), 60.0)
(('белый шоколад', 'гр.'), 60.0)

(('маскарпоне', 'гр.'), 250.0)
(('сливочный сыр', 'гр.'), 750.0)
(('сахар', 'гр.'), 275.0)
(('тыквенное пюре', 'гр.'), 300.0)
(('яйца', 'шт.'), 5.5)
(('сливки', 'гр.'), 270.0)
(('сливочное масло', 'гр.'), 80.0)
(('мука', 'гр.'), 140.0)
(('карамель', 'гр.'), 45.0)
(('разрыхлитель', 'гр.'), 2.0)
(('яблоки', 'шт.'), 1.0)
(('соль', 'щепотка'), 1.0)
(('какао', 'гр.'), 15.0)
(('соль', 'ч. л.'), 0.25)
(('сода', 'ч. л.'), 0.33)
(('молоко', 'гр.'), 75.0)
(('ванильный экстракт', 'ч. л.'), 0.5)
(('уксус', 'ч. л.'), 0.5)
(('Молд алфавит', 'шт.'), 1.0)
(('Шоколад белый', 'гр.'), 210.0)
(('Оранжевый жирорастворимый краситель', 'шт.'), 1.0)
(('черный шоколад', 'гр.'), 60.0)
(('молочный шоколад', 'гр.'), 60.0)
