[
  {
    "name": "сахар",
    "amount": 600,
    "unit": "гр."
  },
  {"name": "Яйца",
   "amount": 10,
   "unit": "шт."},
  {"name": "Шоколад молочный",
   "amount": 600,
   "unit": "гр."},
  {"name": "Шоколад черный",
   "amount": 100,
   "unit": "гр."}

]